{
  "project_info": {
    "project_number": "730947880270",
    "firebase_url": "https://androiddatabase-35b65.firebaseio.com",
    "project_id": "androiddatabase-35b65",
    "storage_bucket": "androiddatabase-35b65.appspot.com"
  },
  "client": [
    {
      "client_info": {
        "mobilesdk_app_id": "1:730947880270:android:75ac66dba37767a7",
        "android_client_info": {
          "package_name": "burakmustafacompany.whereismyability"
        }
      },
      "oauth_client": [
        {
          "client_id": "730947880270-d74v6mnobl8sjeerkghpon3lidvnor36.apps.googleusercontent.com",
          "client_type": 1,
          "android_info": {
            "package_name": "burakmustafacompany.whereismyability",
            "certificate_hash": "eefbfed91f58146f30a5c7a9bc37c3dd766720a5"
          }
        },
        {
          "client_id": "730947880270-fnv5ufpn4vobho6bok297b8u955r7k4l.apps.googleusercontent.com",
          "client_type": 3
        }
      ],
      "api_key": [
        {
          "current_key": "AIzaSyAS6oRtup-WR0UpvhCpNsAIk_JmYd8STIw"
        }
      ],
      "services": {
        "analytics_service": {
          "status": 1
        },
        "appinvite_service": {
          "status": 2,
          "other_platform_oauth_client": [
            {
              "client_id": "730947880270-fnv5ufpn4vobho6bok297b8u955r7k4l.apps.googleusercontent.com",
              "client_type": 3
            }
          ]
        },
        "ads_service": {
          "status": 2
        }
      }
    }
  ],
  "configuration_version": "1"
}